Club,Competition,Expenditures,Arrivals,Income,Departures,Balance
Marseille,Ligue 1,30.1,32,52.38,26,22.28
Olympique Lyon,Ligue 1,26.25,21,22.5,15,-3.75
PSG,Ligue 1,25.0,22,17.0,19,-8.0
FC Nantes,Ligue 1,7.5,17,21.3,13,13.8
FC Sochaux,Ligue 1,5.4,10,14.0,10,8.6
Stade Rennais,Ligue 1,4.2,18,13.0,16,8.8
OGC Nice,Ligue 1,3.55,21,5.0,16,1.45
AJ Auxerre,Ligue 1,3.0,12,27.0,10,24.0
Lens,Ligue 1,3.0,18,13.5,18,10.5
Toulouse,Ligue 1,3.0,17,0.0,14,-3.0
R. Strasbourg,Ligue 1,1.5,17,1.85,16,0.35
Bordeaux,Ligue 1,1.28,15,8.0,19,6.72
Saint-Etienne,Ligue 1,1.2,17,0.0,19,-1.2
SM Caen,Ligue 1,1.0,7,0.0,7,-1.0
LOSC Lille,Ligue 1,0.958,18,10.7,21,9.74
AC Ajaccio,Ligue 1,0.2,13,0.0,23,-0.2
FC Istres,Ligue 1,0.08,19,0.0,18,-0.08
