Club,Competition,Expenditures,Arrivals,Income,Departures,Balance
PSG,Ligue 1,116.1,12,17.4,10,-98.7
Olympique Lyon,Ligue 1,41.1,13,21.8,10,-19.3
Marseille,Ligue 1,19.15,27,54.45,25,35.3
LOSC Lille,Ligue 1,12.9,27,35.25,16,22.35
Saint-Etienne,Ligue 1,12.6,17,23.2,13,10.6
FC Lorient,Ligue 1,8.13,15,12.0,14,3.88
FC Nantes,Ligue 1,5.0,13,17.05,14,12.05
Stade Rennais,Ligue 1,5.0,27,0.0,18,-5.0
SM Caen,Ligue 1,4.65,19,14.0,17,9.35
OGC Nice,Ligue 1,3.1,25,14.0,18,10.9
Bordeaux,Ligue 1,3.0,10,4.5,12,1.5
Toulouse,Ligue 1,2.9,10,10.5,10,7.6
Montpellier,Ligue 1,2.73,12,4.0,11,1.28
Guingamp,Ligue 1,1.95,16,6.0,13,4.05
Reims,Ligue 1,1.5,10,1.5,11,0.0
Troyes,Ligue 1,0.3,18,5.5,17,5.2
