Club,Competition,Expenditures,Arrivals,Income,Departures,Balance
PSG,Ligue 1,68.5,17,59.5,11,-9.0
OGC Nice,Ligue 1,13.75,23,15.8,18,2.05
Olympique Lyon,Ligue 1,12.6,15,27.3,9,14.7
Marseille,Ligue 1,10.2,26,79.4,27,69.2
Toulouse,Ligue 1,7.0,18,10.0,17,3.0
Saint-Etienne,Ligue 1,7.0,15,2.25,17,-4.75
Bordeaux,Ligue 1,6.0,14,0.4,13,-5.6
SCO Angers,Ligue 1,5.2,20,4.4,21,-0.8
FC Nantes,Ligue 1,5.0,10,2.15,12,-2.86
LOSC Lille,Ligue 1,4.5,21,44.0,24,39.5
SM Caen,Ligue 1,4.25,14,11.0,11,6.75
AS Nancy,Ligue 1,2.3,13,5.5,10,3.2
Stade Rennais,Ligue 1,2.27,25,19.7,15,17.43
Dijon,Ligue 1,1.65,16,1.25,14,-0.4
SC Bastia,Ligue 1,0.25,17,4.5,18,4.25
