Club,MatchesM,W,D,L,GoalsG,+/-,PtsP
Borussia Dortmund,34,23,6,5,67:22,45,75
Bayer,34,20,8,6,64:44,20,68
Bayern Munich,34,19,8,7,81:40,41,65
Hannover,34,19,3,12,49:45,4,60
FSV Mainz,34,18,4,12,52:39,13,58
Nuremberg,34,13,8,13,47:45,2,47
Kaiserslautern,34,13,7,14,48:51,-3,46
Hamburger SV,34,12,9,13,46:52,-6,45
Freiburg,34,13,5,16,41:50,-9,44
Koln,34,13,5,16,47:62,-15,44
Hoffenheim,34,11,10,13,50:50,0,43
VFB Stuttgart,34,12,6,16,60:59,1,42
Werder Bremen,34,10,11,13,47:61,-14,41
Schalke,34,11,7,16,38:44,-6,40
VFL Wolfsburg,34,9,11,14,43:48,-5,38
Borussia MGB,34,10,6,18,48:65,-17,36
Eintracht Frankfurt,34,9,7,18,31:49,-18,34
FC St. Pauli,34,8,5,21,35:68,-33,29
