#,Club,Club,Competition,Expenditures,Arrivals,Income,Departures,Balance
1,,Paris Saint-Germain,Ligue 1,"87,10 Mill. €",18,"2,80 Mill. €",11,"-84,30 Mill. €"
2,,LOSC Lille,Ligue 1,"14,00 Mill. €",20,"25,90 Mill. €",16,"11,90 Mill. €"
3,,AS Saint-Étienne,Ligue 1,"14,00 Mill. €",24,"28,36 Mill. €",16,"14,36 Mill. €"
4,,FC Toulouse,Ligue 1,"12,04 Mill. €",10,"4,80 Mill. €",12,"-7,24 Mill. €"
5,,Olympique Marseille,Ligue 1,"11,00 Mill. €",15,-,15,"-11,00 Mill. €"
6,,Stade Rennais FC,Ligue 1,"10,20 Mill. €",12,"4,50 Mill. €",12,"-5,70 Mill. €"
7,,FC Lorient,Ligue 1,"9,00 Mill. €",21,"16,00 Mill. €",19,"7,00 Mill. €"
8,,OGC Nice,Ligue 1,"5,60 Mill. €",18,100 Th. €,16,"-5,50 Mill. €"
9,,AS Nancy-Lorraine,Ligue 1,"5,20 Mill. €",19,"8,90 Mill. €",19,"3,70 Mill. €"
10,,FCO Dijon,Ligue 1,"4,80 Mill. €",20,-,16,"-4,80 Mill. €"
11,,Olympique Lyon,Ligue 1,"4,60 Mill. €",16,"22,00 Mill. €",8,"17,40 Mill. €"
12,,FC Sochaux-Montbéliard,Ligue 1,"3,50 Mill. €",10,"9,00 Mill. €",13,"5,50 Mill. €"
13,,Valenciennes FC,Ligue 1,"3,10 Mill. €",7,"3,20 Mill. €",5,100 Th. €
14,,AJ Auxerre,Ligue 1,"2,75 Mill. €",24,"3,50 Mill. €",13,750 Th. €
15,,HSC Montpellier,Ligue 1,"2,00 Mill. €",14,"2,00 Mill. €",10,+-0
16,,Stade Brest 29,Ligue 1,"2,00 Mill. €",12,-,10,"-2,00 Mill. €"
17,,FC Évian Thonon Gaillard,Ligue 1,"1,85 Mill. €",16,-,14,"-1,85 Mill. €"
18,,CS Sedan-Ardennes,Ligue 2,900 Th. €,13,"1,10 Mill. €",13,200 Th. €
19,,RC Lens,Ligue 2,500 Th. €,17,"18,99 Mill. €",23,"18,49 Mill. €"
20,,AC Ajaccio,Ligue 1,200 Th. €,11,-,7,-200 Th. €
21,,Athlétic Club Arlésien,Ligue 2,200 Th. €,16,200 Th. €,21,+-0
22,,FC Nantes,Ligue 2,-,22,"4,10 Mill. €",21,"4,10 Mill. €"
23,,LB Châteauroux,Ligue 2,-,20,"1,25 Mill. €",20,"1,25 Mill. €"
24,,US Forbach,France,-,5,-,6,+-0
25,,Gazélec Football Club Olympique Ajaccio,Championnat National,-,7,-,6,+-0
