#,Club,Club,Competition,Expenditures,Arrivals,Income,Departures,Balance
1,,Olympique Lyon,Ligue 1,"45,80 Mill. €",19,"43,40 Mill. €",12,"-2,40 Mill. €"
2,,Paris Saint-Germain,Ligue 1,"18,20 Mill. €",17,"9,43 Mill. €",14,"-8,78 Mill. €"
3,,Olympique Marseille,Ligue 1,"14,20 Mill. €",35,"13,15 Mill. €",30,"-1,05 Mill. €"
4,,FC Toulouse,Ligue 1,"11,40 Mill. €",9,-,10,"-11,40 Mill. €"
5,,Stade Rennais FC,Ligue 1,"10,60 Mill. €",14,"3,70 Mill. €",10,"-6,90 Mill. €"
6,,AS Saint-Étienne,Ligue 1,"8,60 Mill. €",16,-,14,"-8,60 Mill. €"
7,,RC Lens,Ligue 1,"7,00 Mill. €",15,"6,00 Mill. €",18,"-1,00 Mill. €"
8,,FC Sochaux-Montbéliard,Ligue 1,"7,00 Mill. €",17,"13,00 Mill. €",15,"6,00 Mill. €"
9,,AJ Auxerre,Ligue 1,"5,00 Mill. €",11,"8,50 Mill. €",9,"3,50 Mill. €"
10,,RC Strasbourg Alsace,Ligue 1,"4,75 Mill. €",17,"7,00 Mill. €",16,"2,25 Mill. €"
11,,OGC Nice,Ligue 1,"4,50 Mill. €",17,250 Th. €,18,"-4,25 Mill. €"
12,,LOSC Lille,Ligue 1,"4,40 Mill. €",11,-,8,"-4,40 Mill. €"
13,,FC Girondins Bordeaux,Ligue 1,"4,00 Mill. €",18,"12,50 Mill. €",16,"8,50 Mill. €"
14,,AS Nancy-Lorraine,Ligue 1,"3,00 Mill. €",12,-,12,"-3,00 Mill. €"
15,,Le Mans Union Club 72,Ligue 1,"2,55 Mill. €",19,"3,00 Mill. €",19,450 Th. €
16,,FC Nantes,Ligue 1,"2,00 Mill. €",19,250 Th. €,16,"-1,75 Mill. €"
17,,FC Stade Rennes B,France,700 Th. €,2,-,8,-700 Th. €
18,,FC Metz,Ligue 1,600 Th. €,25,"1,00 Mill. €",27,400 Th. €
19,,AC Ajaccio,Ligue 1,500 Th. €,18,-,14,-500 Th. €
20,,EA Guingamp,Ligue 2,500 Th. €,15,"3,00 Mill. €",12,"2,50 Mill. €"
21,,ES Troyes AC,Ligue 1,250 Th. €,16,600 Th. €,19,350 Th. €
22,,USL Dunkerque,France,200 Th. €,3,-,0,-200 Th. €
23,,FC Metz B,France,120 Th. €,4,-,8,-120 Th. €
24,,Stade Reims,Ligue 2,40 Th. €,16,"1,30 Mill. €",13,"1,26 Mill. €"
25,,SCO Angers,France,-,10,-,12,+-0
