Club,Competition,Expenditures,Arrivals,Income,Departures,Balance
SSC Napoli,Serie A,88.95,58,72.7,32,-16.25
AS Roma,Serie A,69.19,55,108.85,38,39.66
Fiorentina,Serie A,53.3,43,41.15,31,-12.15
Juventus,Serie A,41.99,61,52.35,39,10.36
Inter,Serie A,38.1,57,9.75,36,-28.35
AC Milan,Serie A,34.5,67,17.4,39,-17.1
Sassuolo,Serie A,29.0,35,5.0,26,-24.0
Lazio,Serie A,26.8,36,8.45,22,-18.35
Genoa,Serie A,23.29,82,23.03,57,-0.254
Udinese,Serie A,17.51,74,47.7,47,30.19
Sampdoria,Serie A,16.55,72,29.15,40,12.6
Parma,Serie A,10.3,325,22.21,180,11.91
Torino,Serie A,9.65,33,17.8,25,8.15
Atalanta,Serie A,9.35,56,6.2,29,-3.15
Hellas Verona,Serie A,8.1,62,0.0,43,-8.1
Catania,Serie A,7.87,45,11.0,37,3.13
Bologna,Serie A,4.4,66,8.45,40,4.05
Chievo Verona,Serie A,3.9,73,5.2,51,1.3
AS Livorno,Serie A,3.82,44,0.6,37,-3.22
