#,Club,Club,Competition,Expenditures,Arrivals,Income,Departures,Balance
1,,AS Roma,Serie A,"71,61 Mill. €",58,"34,60 Mill. €",36,"-37,01 Mill. €"
2,,Juventus FC,Serie A,"46,25 Mill. €",91,"29,71 Mill. €",50,"-16,54 Mill. €"
3,,Torino FC,Serie A,"30,20 Mill. €",52,"34,66 Mill. €",33,"4,46 Mill. €"
4,,Udinese Calcio,Serie A,"29,20 Mill. €",82,"25,40 Mill. €",48,"-3,80 Mill. €"
5,,SSC Napoli,Serie A,"22,30 Mill. €",49,"20,45 Mill. €",32,"-1,85 Mill. €"
6,,Hellas Verona,Serie A,"22,26 Mill. €",71,"30,25 Mill. €",59,"7,99 Mill. €"
7,,US Palermo,Serie A,"19,70 Mill. €",51,"16,50 Mill. €",34,"-3,20 Mill. €"
8,,US Sassuolo,Serie A,"17,80 Mill. €",31,"12,10 Mill. €",28,"-5,70 Mill. €"
9,,Cagliari Calcio,Serie A,"14,70 Mill. €",38,"19,43 Mill. €",28,"4,73 Mill. €"
10,,Inter Milan,Serie A,"13,35 Mill. €",74,"16,50 Mill. €",47,"3,15 Mill. €"
11,,AC Milan,Serie A,"13,30 Mill. €",72,"27,70 Mill. €",49,"14,40 Mill. €"
12,,SS Lazio,Serie A,"12,75 Mill. €",44,150 Th. €,29,"-12,60 Mill. €"
13,,Atalanta BC,Serie A,"11,12 Mill. €",82,"18,20 Mill. €",49,"7,08 Mill. €"
14,,UC Sampdoria,Serie A,"10,85 Mill. €",75,"12,07 Mill. €",50,"1,22 Mill. €"
15,,ACF Fiorentina,Serie A,"9,10 Mill. €",44,"7,00 Mill. €",31,"-2,10 Mill. €"
16,,Parma FC,Serie A,"9,07 Mill. €",275,"10,30 Mill. €",174,"1,23 Mill. €"
17,,Chievo Verona,Serie A,"7,25 Mill. €",98,"4,49 Mill. €",65,"-2,76 Mill. €"
18,,Genoa CFC,Serie A,"5,75 Mill. €",69,"24,50 Mill. €",51,"18,75 Mill. €"
19,,Calcio Catania,Serie B,"4,10 Mill. €",46,"19,02 Mill. €",37,"14,92 Mill. €"
20,,Bologna FC 1909,Serie B,"3,89 Mill. €",67,"11,15 Mill. €",51,"7,26 Mill. €"
21,,Udinese Primavera,Primavera B,"2,90 Mill. €",30,-,21,"-2,90 Mill. €"
22,,AC Cesena,Serie A,"1,10 Mill. €",77,"1,00 Mill. €",55,-100 Th. €
23,,Ternana Calcio,Serie B,"1,00 Mill. €",23,750 Th. €,28,-250 Th. €
24,,Spezia Calcio,Serie B,980 Th. €,34,"1,00 Mill. €",39,20 Th. €
25,,Juventus Under 17,Under 17 - A,900 Th. €,19,-,20,-900 Th. €
