#,Club,Club,Competition,Expenditures,Arrivals,Income,Departures,Balance
1,,Bayern Munich,Bundesliga,"103,50 Mill. €",16,"32,55 Mill. €",10,"-70,95 Mill. €"
2,,Borussia Dortmund,Bundesliga,"83,84 Mill. €",16,"176,50 Mill. €",12,"92,67 Mill. €"
3,,VfL Wolfsburg,Bundesliga,"64,00 Mill. €",23,"33,00 Mill. €",19,"-31,00 Mill. €"
4,,RB Leipzig,Bundesliga,"62,25 Mill. €",23,"23,40 Mill. €",11,"-38,85 Mill. €"
5,,Bayer 04 Leverkusen,Bundesliga,"56,00 Mill. €",14,"81,10 Mill. €",16,"25,10 Mill. €"
6,,FC Schalke 04,Bundesliga,"47,50 Mill. €",20,"7,05 Mill. €",22,"-40,45 Mill. €"
7,,Borussia Mönchengladbach,Bundesliga,"37,25 Mill. €",13,"31,08 Mill. €",12,"-6,17 Mill. €"
8,,1. FC Köln,Bundesliga,"34,00 Mill. €",8,"5,95 Mill. €",4,"-28,05 Mill. €"
9,,VfB Stuttgart,Bundesliga,"27,20 Mill. €",20,"4,60 Mill. €",15,"-22,60 Mill. €"
10,,Hamburger SV,Bundesliga,"19,00 Mill. €",15,"5,55 Mill. €",14,"-13,45 Mill. €"
11,,SC Freiburg,Bundesliga,"18,80 Mill. €",19,"26,90 Mill. €",14,"8,10 Mill. €"
12,,Hannover 96,Bundesliga,"18,50 Mill. €",17,250 Th. €,10,"-18,25 Mill. €"
13,,Eintracht Frankfurt,Bundesliga,"18,30 Mill. €",17,"4,50 Mill. €",12,"-13,80 Mill. €"
14,,TSG 1899 Hoffenheim,Bundesliga,"14,70 Mill. €",24,"32,75 Mill. €",16,"18,05 Mill. €"
15,,Hertha BSC,Bundesliga,"14,00 Mill. €",12,"17,00 Mill. €",7,"3,00 Mill. €"
16,,1.FSV Mainz 05,Bundesliga,"12,75 Mill. €",19,"20,30 Mill. €",11,"7,55 Mill. €"
17,,SV Werder Bremen,Bundesliga,"9,50 Mill. €",19,"8,90 Mill. €",17,-600 Th. €
18,,FC Augsburg,Bundesliga,"7,55 Mill. €",20,"6,50 Mill. €",10,"-1,05 Mill. €"
19,,FC Ingolstadt 04,2.Bundesliga,"4,65 Mill. €",20,"14,80 Mill. €",13,"10,15 Mill. €"
20,,1.FC Nuremberg,2.Bundesliga,"2,45 Mill. €",12,"3,75 Mill. €",16,"1,30 Mill. €"
21,,SV Darmstadt 98,2.Bundesliga,"2,10 Mill. €",23,"3,95 Mill. €",22,"1,85 Mill. €"
22,,SG Dynamo Dresden,2.Bundesliga,"1,93 Mill. €",15,"3,00 Mill. €",17,"1,07 Mill. €"
23,,FC St. Pauli,2.Bundesliga,"1,30 Mill. €",8,-,7,"-1,30 Mill. €"
24,,1.FC Union Berlin,2.Bundesliga,"1,28 Mill. €",15,-,11,"-1,28 Mill. €"
25,,1.FC Kaiserslautern,2.Bundesliga,"1,00 Mill. €",24,"7,50 Mill. €",22,"6,50 Mill. €"
