#,Club,Club,Competition,Expenditures,Arrivals,Income,Departures,Balance
1,,VfL Wolfsburg,Bundesliga,"39,90 Mill. €",13,"22,35 Mill. €",12,"-17,55 Mill. €"
2,,FC Schalke 04,Bundesliga,"34,00 Mill. €",21,"16,15 Mill. €",23,"-17,85 Mill. €"
3,,Hamburger SV,Bundesliga,"15,20 Mill. €",20,"15,55 Mill. €",12,350 Th. €
4,,SV Werder Bremen,Bundesliga,"13,94 Mill. €",17,"19,50 Mill. €",11,"5,56 Mill. €"
5,,VfB Stuttgart,Bundesliga,"13,10 Mill. €",12,"20,50 Mill. €",16,"7,40 Mill. €"
6,,TSG 1899 Hoffenheim,Bundesliga,"10,75 Mill. €",11,"25,30 Mill. €",9,"14,55 Mill. €"
7,,Bayer 04 Leverkusen,Bundesliga,"5,70 Mill. €",17,"1,55 Mill. €",11,"-4,15 Mill. €"
8,,Borussia Mönchengladbach,Bundesliga,"5,50 Mill. €",12,"2,00 Mill. €",8,"-3,50 Mill. €"
9,,Borussia Dortmund,Bundesliga,"5,25 Mill. €",15,"4,15 Mill. €",9,"-1,10 Mill. €"
10,,1.FC Kaiserslautern,Bundesliga,"4,60 Mill. €",16,100 Th. €,23,"-4,50 Mill. €"
11,,1. FC Köln,Bundesliga,"4,00 Mill. €",17,50 Th. €,10,"-3,95 Mill. €"
12,,1.FSV Mainz 05,Bundesliga,"3,80 Mill. €",17,"5,12 Mill. €",21,"1,32 Mill. €"
13,,Hertha BSC,2.Bundesliga,"3,45 Mill. €",21,"8,45 Mill. €",21,"5,00 Mill. €"
14,,Eintracht Frankfurt,Bundesliga,"2,45 Mill. €",10,200 Th. €,10,"-2,25 Mill. €"
15,,FC Augsburg,2.Bundesliga,"1,38 Mill. €",16,175 Th. €,18,"-1,20 Mill. €"
16,,1.FC Nuremberg,Bundesliga,"1,15 Mill. €",15,"2,30 Mill. €",17,"1,15 Mill. €"
17,,RB Leipzig,RL Nord (bis 11/12),"1,00 Mill. €",16,-,13,"-1,00 Mill. €"
18,,Hannover 96,Bundesliga,"1,00 Mill. €",11,550 Th. €,15,-450 Th. €
19,,VfL Bochum,2.Bundesliga,950 Th. €,14,"1,78 Mill. €",10,825 Th. €
20,,SC Freiburg,Bundesliga,750 Th. €,12,210 Th. €,12,-540 Th. €
21,,TSV 1860 Munich,2.Bundesliga,600 Th. €,16,"2,20 Mill. €",14,"1,60 Mill. €"
22,,FC Bayern Munich U19,A-Junioren Bundesliga Süd/Südwest,500 Th. €,14,-,14,-500 Th. €
23,,FC Energie Cottbus,2.Bundesliga,450 Th. €,13,900 Th. €,13,450 Th. €
24,,MSV Duisburg,2.Bundesliga,350 Th. €,21,-,22,-350 Th. €
25,,Fortuna Düsseldorf,2.Bundesliga,200 Th. €,10,-,13,-200 Th. €
