Club,MatchesM,W,D,L,GoalsG,+/-,PtsP
LOSC Lille,38,21,13,4,68:36,32,76
Marseille,38,18,14,6,62:39,23,68
Olympique Lyon,38,17,13,8,61:40,21,64
PSG,38,15,15,8,56:41,15,60
FC Sochaux,38,17,7,14,60:43,17,58
Stade Rennais,38,15,11,12,38:35,3,56
Bordeaux,38,12,15,11,43:42,1,51
Toulouse,38,14,8,16,38:36,2,50
AJ Auxerre,38,10,19,9,45:41,4,49
Saint-Etienne,38,12,13,13,46:47,-1,49
FC Lorient,38,12,13,13,46:48,-2,49
Valenciennes FC,38,10,18,10,45:41,4,48
AS Nancy,38,13,9,16,43:48,-5,48
Montpellier,38,12,11,15,32:43,-11,47
SM Caen,38,11,13,14,46:51,-5,46
Stade Brest 29,38,11,13,14,36:43,-7,46
OGC Nice,38,11,13,14,33:48,-15,46
Monaco,38,9,17,12,36:40,-4,44
Lens,38,7,14,17,35:58,-23,35
AC Arles,38,3,11,24,21:70,-49,20
