Club,Competition,Expenditures,Arrivals,Income,Departures,Balance
Bayern Munich,Bundesliga,70.3,12,0.5,6,-69.8
Borussia MGB,Bundesliga,31.4,15,23.35,11,-8.05
Hamburger SV,Bundesliga,27.0,14,9.5,15,-17.5
Borussia Dortmund,Bundesliga,25.65,14,25.5,10,-0.15
VFL Wolfsburg,Bundesliga,19.1,33,20.2,18,1.1
Bayer,Bundesliga,18.3,21,7.75,16,-10.55
Werder Bremen,Bundesliga,13.45,13,13.05,15,-0.4
Hoffenheim,Bundesliga,13.1,23,20.05,22,6.95
Eintracht Frankfurt,Bundesliga,7.65,20,2.7,15,-4.95
Hannover,Bundesliga,5.05,10,2.97,11,-2.08
Schalke,Bundesliga,4.5,18,4.9,20,0.4
Greuther Ferth,Bundesliga,2.7,16,1.34,14,-1.36
Augsburg,Bundesliga,2.55,12,0.15,17,-2.4
Nuremberg,Bundesliga,2.2,14,7.0,14,4.8
FSV Mainz,Bundesliga,2.18,11,2.95,10,0.77
Fortuna Dusseldorf,Bundesliga,2.05,21,0.0,17,-2.05
Freiburg,Bundesliga,1.0,12,0.2,9,-0.8
VFB Stuttgart,Bundesliga,0.3,10,6.5,9,6.2
