Club,Competition,Expenditures,Arrivals,Income,Departures,Balance
Borussia Dortmund,Bundesliga,112.5,14,110.5,6,-2.0
Bayern Munich,Bundesliga,70.0,8,52.0,7,-18.0
RB Leipzig,Bundesliga,68.45,13,0.1,9,-68.35
VFL Wolfsburg,Bundesliga,48.05,19,51.95,15,3.9
Bayer,Bundesliga,43.6,27,22.7,16,-20.9
Schalke,Bundesliga,39.3,20,56.8,15,17.5
Hamburger SV,Bundesliga,32.45,19,2.15,15,-30.3
Borussia MGB,Bundesliga,29.5,13,45.1,9,15.6
FSV Mainz,Bundesliga,26.65,17,10.45,13,-16.2
Hoffenheim,Bundesliga,24.44,27,29.6,19,5.16
Werder Bremen,Bundesliga,21.7,22,26.5,15,4.8
Augsburg,Bundesliga,20.7,16,15.05,17,-5.65
Freiburg,Bundesliga,10.0,21,5.15,17,-4.85
FC Ingolstadt,Bundesliga,7.95,14,4.55,9,-3.4
Hertha,Bundesliga,6.7,6,4.7,10,-2.0
Koln,Bundesliga,5.1,9,16.0,7,10.9
SV Darmstadt 98,Bundesliga,3.5,20,5.1,24,1.6
Eintracht Frankfurt,Bundesliga,2.2,13,11.05,17,8.85
