Club,MatchesM,W,D,L,GoalsG,+/-,PtsP
Juventus,19,17,2,0,38:11,27,53
SSC Napoli,19,14,2,3,37:17,20,44
Inter,19,12,3,4,31:14,17,39
Lazio,19,9,5,5,28:21,7,32
AC Milan,19,8,7,4,26:20,6,31
AS Roma,19,8,6,5,34:24,10,30
Sampdoria,19,8,5,6,32:23,9,29
Atalanta,19,8,4,7,39:27,12,28
Torino,19,6,9,4,24:19,5,27
Fiorentina,19,6,8,5,25:18,7,26
Sassuolo,19,6,7,6,30:32,-2,25
Parma,19,7,4,8,17:23,-6,25
Cagliari Calcio,19,4,8,7,17:25,-8,20
Genoa,19,5,5,9,25:35,-10,20
Udinese,19,4,6,9,16:23,-7,18
SPAL,19,4,5,10,15:27,-12,17
FC Empoli,19,4,4,11,22:37,-15,16
Bologna,19,2,7,10,15:29,-14,13
Frosinone,19,1,7,11,12:37,-25,10
Chievo Verona,19,1,8,10,14:35,-21,8
