#,Club,Club,Competition,Expenditures,Arrivals,Income,Departures,Balance
1,,Real Madrid,LaLiga,"89,00 Mill. €",7,"10,50 Mill. €",6,"-78,50 Mill. €"
2,,FC Barcelona,LaLiga,"69,50 Mill. €",13,"52,70 Mill. €",9,"-16,80 Mill. €"
3,,Valencia CF,LaLiga,"26,60 Mill. €",21,"83,55 Mill. €",14,"56,95 Mill. €"
4,,Atlético Madrid,LaLiga,"22,80 Mill. €",12,"21,50 Mill. €",9,"-1,30 Mill. €"
5,,Málaga CF,LaLiga,"17,15 Mill. €",21,-,20,"-17,15 Mill. €"
6,,Sevilla FC,LaLiga,"11,30 Mill. €",19,"16,00 Mill. €",14,"4,70 Mill. €"
7,,RCD Espanyol Barcelona,LaLiga,"8,75 Mill. €",21,"12,00 Mill. €",16,"3,25 Mill. €"
8,,Hércules CF,LaLiga,"5,41 Mill. €",13,-,15,"-5,41 Mill. €"
9,,Villarreal CF,LaLiga,"4,25 Mill. €",19,"15,32 Mill. €",13,"11,07 Mill. €"
10,,Real Sociedad,LaLiga,"4,20 Mill. €",10,-,9,"-4,20 Mill. €"
11,,Real Zaragoza,LaLiga,"4,00 Mill. €",15,-,21,"-4,00 Mill. €"
12,,Getafe CF,LaLiga,"3,90 Mill. €",12,"22,10 Mill. €",12,"18,20 Mill. €"
13,,Real Betis Balompié,LaLiga2,"3,30 Mill. €",18,"2,20 Mill. €",13,"-1,10 Mill. €"
14,,UD Almería,LaLiga,"3,20 Mill. €",9,"5,00 Mill. €",12,"1,80 Mill. €"
15,,Athletic Bilbao,LaLiga,"2,70 Mill. €",10,-,9,"-2,70 Mill. €"
16,,CA Osasuna,LaLiga,"2,47 Mill. €",14,"6,00 Mill. €",11,"3,53 Mill. €"
17,,Racing Santander,LaLiga,"1,17 Mill. €",15,"10,00 Mill. €",16,"8,84 Mill. €"
18,,Villarreal CF B,LaLiga2,"1,11 Mill. €",26,"2,00 Mill. €",23,890 Th. €
19,,UD Las Palmas,LaLiga2,800 Th. €,15,"3,80 Mill. €",14,"3,00 Mill. €"
20,,Sporting Gijón,LaLiga,800 Th. €,8,-,7,-800 Th. €
21,,FC Barcelona B,LaLiga2,600 Th. €,11,-,11,-600 Th. €
22,,Granada CF,LaLiga2,600 Th. €,18,-,17,-600 Th. €
23,,Elche CF,LaLiga2,400 Th. €,21,"1,60 Mill. €",22,"1,20 Mill. €"
24,,Real Valladolid CF,LaLiga2,300 Th. €,17,"3,00 Mill. €",19,"2,70 Mill. €"
25,,Bilbao Athletic,2ª B - Grupo II,200 Th. €,23,-,15,-200 Th. €
