#,Club,Club,Competition,Expenditures,Arrivals,Income,Departures,Balance
1,,Real Madrid,LaLiga,"118,00 Mill. €",22,"40,40 Mill. €",17,"-77,60 Mill. €"
2,,Atlético Madrid,LaLiga,"80,50 Mill. €",20,"51,10 Mill. €",15,"-29,40 Mill. €"
3,,FC Barcelona,LaLiga,"68,00 Mill. €",11,"14,00 Mill. €",7,"-54,00 Mill. €"
4,,Valencia CF,LaLiga,"52,15 Mill. €",30,"6,50 Mill. €",17,"-45,65 Mill. €"
5,,Villarreal CF,LaLiga,"35,20 Mill. €",25,"41,95 Mill. €",20,"6,75 Mill. €"
6,,Sevilla FC,LaLiga,"29,00 Mill. €",20,"7,00 Mill. €",11,"-22,00 Mill. €"
7,,Real Zaragoza,LaLiga,"28,80 Mill. €",17,"21,80 Mill. €",13,"-7,00 Mill. €"
8,,Real Betis Balompié,LaLiga,"24,30 Mill. €",18,-,12,"-24,30 Mill. €"
9,,Getafe CF,LaLiga,"18,00 Mill. €",15,"12,50 Mill. €",9,"-5,50 Mill. €"
10,,Athletic Bilbao,LaLiga,"13,30 Mill. €",12,"1,00 Mill. €",11,"-12,30 Mill. €"
11,,Racing Santander,LaLiga,"13,18 Mill. €",23,"16,90 Mill. €",18,"3,72 Mill. €"
12,,CA Osasuna,LaLiga,"10,05 Mill. €",18,"23,90 Mill. €",16,"13,85 Mill. €"
13,,Real Murcia CF,LaLiga,"8,83 Mill. €",25,"2,20 Mill. €",19,"-6,63 Mill. €"
14,,Recreativo Huelva,LaLiga,"8,54 Mill. €",20,"1,20 Mill. €",22,"-7,34 Mill. €"
15,,UD Almería,LaLiga,"8,25 Mill. €",15,-,14,"-8,25 Mill. €"
16,,Deportivo de La Coruña,LaLiga,"7,95 Mill. €",19,"22,00 Mill. €",15,"14,05 Mill. €"
17,,RCD Mallorca,LaLiga,"7,50 Mill. €",15,"8,47 Mill. €",10,970 Th. €
18,,Levante UD,LaLiga,"5,30 Mill. €",24,-,17,"-5,30 Mill. €"
19,,RCD Espanyol Barcelona,LaLiga,"5,10 Mill. €",11,"5,85 Mill. €",14,750 Th. €
20,,Real Valladolid CF,LaLiga,"1,90 Mill. €",13,-,13,"-1,90 Mill. €"
21,,Real Madrid Castilla,2ª B - Grupo I,"1,80 Mill. €",16,"5,50 Mill. €",16,"3,70 Mill. €"
22,,Gimnàstic de Tarragona,LaLiga2,"1,10 Mill. €",17,150 Th. €,28,-950 Th. €
23,,Hércules CF,LaLiga2,"1,10 Mill. €",18,-,22,"-1,10 Mill. €"
24,,Celta de Vigo,LaLiga2,"1,00 Mill. €",18,"17,00 Mill. €",22,"16,00 Mill. €"
25,,Cádiz CF,LaLiga2,700 Th. €,18,"1,30 Mill. €",20,600 Th. €
