#,Club,Club,Competition,Expenditures,Arrivals,Income,Departures,Balance
1,,FC Barcelona,LaLiga,"96,00 Mill. €",10,"54,59 Mill. €",13,"-41,41 Mill. €"
2,,Sevilla FC,LaLiga,"37,70 Mill. €",18,"60,25 Mill. €",14,"22,55 Mill. €"
3,,Real Madrid,LaLiga,"33,70 Mill. €",9,"69,30 Mill. €",10,"35,60 Mill. €"
4,,Atlético Madrid,LaLiga,"26,50 Mill. €",19,"3,45 Mill. €",17,"-23,05 Mill. €"
5,,Villarreal CF,LaLiga,"25,40 Mill. €",21,"24,50 Mill. €",16,-900 Th. €
6,,Real Betis Balompié,LaLiga,"25,20 Mill. €",16,"11,50 Mill. €",12,"-13,70 Mill. €"
7,,Real Zaragoza,LaLiga2,"20,58 Mill. €",21,"37,00 Mill. €",19,"16,43 Mill. €"
8,,Getafe CF,LaLiga,"17,50 Mill. €",14,"7,70 Mill. €",13,"-9,80 Mill. €"
9,,UD Almería,LaLiga,"14,50 Mill. €",16,"8,00 Mill. €",9,"-6,50 Mill. €"
10,,RCD Espanyol Barcelona,LaLiga,"11,80 Mill. €",12,"18,60 Mill. €",10,"6,80 Mill. €"
11,,RCD Mallorca,LaLiga,"9,23 Mill. €",25,"32,40 Mill. €",22,"23,17 Mill. €"
12,,Deportivo de La Coruña,LaLiga,"9,20 Mill. €",22,"18,68 Mill. €",16,"9,48 Mill. €"
13,,Valencia CF,LaLiga,"6,00 Mill. €",27,"10,70 Mill. €",18,"4,70 Mill. €"
14,,CA Osasuna,LaLiga,"5,05 Mill. €",16,"4,75 Mill. €",13,-300 Th. €
15,,Recreativo Huelva,LaLiga,"4,69 Mill. €",13,"14,30 Mill. €",22,"9,61 Mill. €"
16,,Racing Santander,LaLiga,"2,65 Mill. €",23,"15,50 Mill. €",21,"12,85 Mill. €"
17,,Real Madrid U17,Spain,"1,50 Mill. €",4,-,6,"-1,50 Mill. €"
18,,Real Murcia CF,LaLiga2,"1,50 Mill. €",25,200 Th. €,26,"-1,30 Mill. €"
19,,Real Valladolid CF,LaLiga,"1,25 Mill. €",15,"5,50 Mill. €",18,"4,25 Mill. €"
20,,Málaga CF,LaLiga,"1,10 Mill. €",15,-,23,"-1,10 Mill. €"
21,,Hércules CF,LaLiga2,"1,10 Mill. €",19,-,20,"-1,10 Mill. €"
22,,Bilbao Athletic,2ª B - Grupo I,"1,00 Mill. €",15,-,13,"-1,00 Mill. €"
23,,CD Castellón,LaLiga2,650 Th. €,6,-,8,-650 Th. €
24,,Sevilla Atlético,LaLiga2,650 Th. €,15,-,18,-650 Th. €
25,,Real Madrid C,Spain,400 Th. €,9,-,13,-400 Th. €
