#,Club,Club,Competition,Expenditures,Arrivals,Income,Departures,Balance
1,,Manchester City,Premier League,"146,61 Mill. €",32,"32,80 Mill. €",20,"-113,81 Mill. €"
2,,Chelsea FC,Premier League,"38,00 Mill. €",22,"16,50 Mill. €",18,"-21,50 Mill. €"
3,,Liverpool FC,Premier League,"30,03 Mill. €",25,"36,00 Mill. €",17,"5,98 Mill. €"
4,,Manchester United,Premier League,"24,30 Mill. €",20,"16,50 Mill. €",18,"-7,80 Mill. €"
5,,Sunderland AFC,Premier League,"22,10 Mill. €",25,"19,93 Mill. €",24,"-2,18 Mill. €"
6,,Birmingham City,Premier League,"21,20 Mill. €",15,-,17,"-21,20 Mill. €"
7,,Tottenham Hotspur,Premier League,"21,20 Mill. €",37,"1,44 Mill. €",21,"-19,77 Mill. €"
8,,Wolverhampton Wanderers,Premier League,"19,38 Mill. €",26,"2,94 Mill. €",22,"-16,44 Mill. €"
9,,Stoke City,Premier League,"19,10 Mill. €",17,"2,28 Mill. €",16,"-16,83 Mill. €"
10,,Arsenal FC,Premier League,"19,00 Mill. €",20,"9,20 Mill. €",19,"-9,80 Mill. €"
11,,West Bromwich Albion,Premier League,"13,83 Mill. €",23,-,19,"-13,83 Mill. €"
12,,Wigan Athletic,Premier League,"10,70 Mill. €",19,"2,40 Mill. €",17,"-8,30 Mill. €"
13,,West Ham United,Premier League,"10,50 Mill. €",12,"2,95 Mill. €",14,"-7,55 Mill. €"
14,,Fulham FC,Premier League,"10,45 Mill. €",12,"12,25 Mill. €",14,"1,80 Mill. €"
15,,Aston Villa,Premier League,"9,70 Mill. €",17,"23,80 Mill. €",10,"14,10 Mill. €"
16,,Newcastle United,Premier League,"7,98 Mill. €",15,750 Th. €,9,"-7,23 Mill. €"
17,,Middlesbrough FC,Championship,"6,98 Mill. €",19,"2,80 Mill. €",17,"-4,18 Mill. €"
18,,Queens Park Rangers,Championship,"5,99 Mill. €",38,-,25,"-5,99 Mill. €"
19,,Blackpool FC,Premier League,"5,43 Mill. €",19,700 Th. €,15,"-4,73 Mill. €"
20,,Burnley FC,Championship,"4,48 Mill. €",15,"7,20 Mill. €",21,"2,73 Mill. €"
21,,Leicester City,Championship,"4,00 Mill. €",31,"1,59 Mill. €",28,"-2,41 Mill. €"
22,,Norwich City,Championship,"3,65 Mill. €",19,-,16,"-3,65 Mill. €"
23,,Bolton Wanderers,Premier League,"2,65 Mill. €",16,"1,40 Mill. €",14,"-1,25 Mill. €"
24,,Barnsley FC,Championship,"2,26 Mill. €",18,"1,00 Mill. €",20,"-1,26 Mill. €"
25,,Southampton FC,League One,"1,99 Mill. €",17,-,21,"-1,99 Mill. €"
